{
  "extensionDescription": {
    "message": "Chrání před sledováním skrze centrálně doručovaný obsah.",
    "description": "Extension description."
  },
  "disableProtectionTitle": {
    "message": "Zakázat ochranu na této stránce",
    "description": "Disable protection title."
  },
  "enableProtectionTitle": {
    "message": "Zapnout ochranu",
    "description": "Enable protection title."
  },
  "amountInjectedTitle": {
    "message": "Počítadlo vložených lokálních zdrojů",
    "description": "Amount injected title."
  },
  "amountInjectedDescription": {
    "message": "Počet lokální uložených zdrojů vložených od instalace.",
    "description": "Amount injected description."
  },
  "optionsTitle": {
    "message": "Možnosti",
    "description": "Options title."
  },
  "showIconBadgeTitle": {
    "message": "Zobrazovat počet vložení u ikony",
    "description": "Show icon badge title."
  },
  "showIconBadgeDescription": {
    "message": "Zobrazit počet vložených zdrojů u ikony rozšíření.",
    "description": "Show icon badge description."
  },
  "blockMissingTitle": {
    "message": "Blokovat požadavky na chybějící zdroje",
    "description": "Block requests for missing resources title."
  },
  "blockMissingDescription": {
    "message": "Zrušit požadavky na sledované zdroje, pokud nejsou lokálně dostupné.",
    "description": "Block requests for missing resources description."
  },
  "disablePrefetchTitle": {
    "message": "Zakázat přednačítání odkazů",
    "description": "Disable prefetch title."
  },
  "disablePrefetchDescription": {
    "message": "Předejte nepovoleným požadavkům do sítí pro doručování obsahu.",
    "description": "Disable prefetch description."
  },
  "stripMetadataTitle": {
    "message": "Odstranit metadata z povolených požadavků",
    "description": "Strip metadata title."
  },
  "stripMetadataDescription": {
    "message": "Pro zlepšení soukromí odstraní citlivá data z povolených požadavků na CDN.",
    "description": "Strip metadata description."
  },
  "whitelistedDomainsTitle": {
    "message": "Nekontrolovat pro domény",
    "description": "Whitelisted domains title."
  },
  "whitelistedDomainsDescription": {
    "message": "Zadejte domény pro jejich vynechání z kontroly. Jednotlivé domény oddělujte pomocí středníků (;).",
    "description": "Whitelisted domains description."
  },
  "advancedLabel": {
    "message": "Rozšířené",
    "description": "Advanced label."
  },
  "generateRuleSetTitle": {
    "message": "Generujte sady pravidel pro uBlock nebo uMatrix",
    "description": "Generate rule set title."
  },
  "generateRuleSetDescription": {
    "message": "",
    "description": "In case you're using uBlock or uMatrix you can generate the rules here. You have to add these rules manually in uBlock or uMatrix."
  },
  "lastUpdate": {
      "message": "",
      "description": "Last update."
  },
  "copyRuleSet": {
    "message": "",
    "description": "Text of button to copy ruleset."
  },
  "loggingTitle": {
    "message": "",
    "description": "Enable logging in browser console."
  },
  "loggingDescription": {
    "message": "",
    "description": "Open \"Browser Console\" ( CTRL + SHIFT + J ) to show missing resources."
  },
  "hideReleaseNotesTitle": {
    "message": "",
    "description": "Disable release notes"
  },
  "hideReleaseNotesDescription": {
    "message": "",
    "description": "If enabled, you wont receive any information about new features in LocalCDN. This includes information about new uBlock/uMatrix rules."
  },
  "featureBreaksWebsitesDescription": {
    "message": "",
    "description": "This feature breaks websites. Do not leave it enabled, unless you are prepared to manually whitelist any affected domains."
  },
  "featureBreaksWebsitesButton": {
    "message": "",
    "description": "Disable"
  }
}
