{
  "extensionDescription": {
    "message": "Suojaa sinua \"ilmaisten\" keskitettyjen sisällön jakeluverkkojen jäljitykseltä.",
    "description": "Extension description."
  },
  "disableProtectionTitle": {
    "message": "Poista suojaus tältä sivustolta",
    "description": "Disable protection title."
  },
  "enableProtectionTitle": {
    "message": "Ota suojaus käyttöön",
    "description": "Enable protection title."
  },
  "amountInjectedTitle": {
    "message": "Korvatut pyynnöt",
    "description": "Amount injected title."
  },
  "amountInjectedDescription": {
    "message": "Korvatut sisältöpyynnöt lisäosan asennuksen jälkeen.",
    "description": "Amount injected description."
  },
  "optionsTitle": {
    "message": "Asetukset",
    "description": "Options title."
  },
  "showIconBadgeTitle": {
    "message": "Näytä kohteiden määrä kuvakkeessa",
    "description": "Show icon badge title."
  },
  "showIconBadgeDescription": {
    "message": "Näyttää turvattujen kohteiden määrän lisäosan kuvakkeessa.",
    "description": "Show icon badge description."
  },
  "blockMissingTitle": {
    "message": "Estä pyynnöt puuttuviin resursseihin",
    "description": "Block requests for missing resources title."
  },
  "blockMissingDescription": {
    "message": "Estää pyynnöt jos paikallista sisältöä ei ole saatavilla.",
    "description": "Block requests for missing resources description."
  },
  "disablePrefetchTitle": {
    "message": "Estä linkkien esihaku",
    "description": "Disable prefetch title."
  },
  "disablePrefetchDescription": {
    "message": "Estä kiellettyjä sisältöpyyntöjä vuotamasta keskitettyihin jakeluverkkoihin.",
    "description": "Disable prefetch description."
  },
  "stripMetadataTitle": {
    "message": "Poista metatiedot sallituista sisältöpyynnöistä",
    "description": "Strip metadata title."
  },
  "stripMetadataDescription": {
    "message": "Poista arkaluontoiset tiedot jakeluverkkojen sisältöpyynnöistä yksityisyyden parantamiseksi.",
    "description": "Strip metadata description."
  },
  "whitelistedDomainsTitle": {
    "message": "Poissulje verkkotunnukset",
    "description": "Whitelisted domains title."
  },
  "whitelistedDomainsDescription": {
    "message": "Lisää verkkotunnus jottei sitä korvata. Erota rivit puolipisteellä (;).",
    "description": "Whitelisted domains description."
  },
  "advancedLabel": {
    "message": "Edistynyt",
    "description": "Advanced label."
  },
  "generateRuleSetTitle": {
    "message": "Luo sääntöjoukot uBlockille tai uMatrixille",
    "description": "Generate rule set title."
  },
  "generateRuleSetDescription": {
    "message": "",
    "description": "In case you're using uBlock or uMatrix you can generate the rules here. You have to add these rules manually in uBlock or uMatrix."
  },
  "lastUpdate": {
      "message": "",
      "description": "Last update."
  },
  "copyRuleSet": {
    "message": "",
    "description": "Text of button to copy ruleset."
  },
  "loggingTitle": {
    "message": "",
    "description": "Enable logging in browser console."
  },
  "loggingDescription": {
    "message": "",
    "description": "Open \"Browser Console\" ( CTRL + SHIFT + J ) to show missing resources."
  },
  "hideReleaseNotesTitle": {
    "message": "",
    "description": "Disable release notes"
  },
  "hideReleaseNotesDescription": {
    "message": "",
    "description": "If enabled, you wont receive any information about new features in LocalCDN. This includes information about new uBlock/uMatrix rules."
  },
  "featureBreaksWebsitesDescription": {
    "message": "",
    "description": "This feature breaks websites. Do not leave it enabled, unless you are prepared to manually whitelist any affected domains."
  },
  "featureBreaksWebsitesButton": {
    "message": "",
    "description": "Disable"
  }
}
